HR source
…
salary_SL <- HR %>% 
  group_by(sales, salary) %>% 
  summarise(mean_SL = mean(SL), .groups = 'drop')

salary_SL

## # A tibble: 30 x 3
##    sales      salary mean_SL
##    <chr>      <chr>    <dbl>
##  1 accounting high     0.614
##  2 accounting low      0.574
##  3 accounting medium   0.584
##  4 hr         high     0.673
##  5 hr         low      0.609
##  6 hr         medium   0.580
##  7 IT         high     0.638
##  8 IT         low      0.610
##  9 IT         medium   0.624
## 10 management high     0.653
## # ... with 20 more rows
…
, ,   

sales_salary_left <- HR %>% 
  group_by(sales, salary, left) %>% 
  summarise(n = n(),  .groups = 'drop') %>% 
  mutate(tot_group = sum(n)) %>% 
  mutate(pct = round(n/tot_group*100,1))

sales_salary_left

## # A tibble: 60 x 6
##    sales      salary left         n tot_group   pct
##    <chr>      <chr>  <chr>    <int>     <int> <dbl>
##  1 accounting high   left        69     14999   0.5
##  2 accounting high   turnover     5     14999   0  
##  3 accounting low    left       259     14999   1.7
##  4 accounting low    turnover    99     14999   0.7
##  5 accounting medium left       235     14999   1.6
##  6 accounting medium turnover   100     14999   0.7
##  7 hr         high   left        39     14999   0.3
##  8 hr         high   turnover     6     14999   0  
##  9 hr         low    left       243     14999   1.6
## 10 hr         low    turnover    92     14999   0.6
## # ... with 50 more rows

, ,   

df_turnover1 <- sales_salary_left %>% 
  filter(left == "turnover") %>% 
  select(sales, salary, pct)

df_turnover1

## # A tibble: 30 x 3
##    sales      salary   pct
##    <chr>      <chr>  <dbl>
##  1 accounting high     0  
##  2 accounting low      0.7
##  3 accounting medium   0.7
##  4 hr         high     0  
##  5 hr         low      0.6
##  6 hr         medium   0.8
##  7 IT         high     0  
##  8 IT         low      1.1
##  9 IT         medium   0.6
## 10 management high     0  
## # ... with 20 more rows
…
sales_LE_left <- HR %>% 
  group_by(sales, LE, left) %>% 
  summarise(n = n(), .groups = 'drop') %>% 
  mutate(tot_group = sum(n)) %>% 
  mutate(pct = round(n/tot_group*100,1))

, ,  

df_turnover2 <- sales_LE_left %>% 
  filter(left == "turnover") %>% 
  select(sales, LE, pct)

df_turnover2

## # A tibble: 383 x 3
##    sales         LE   pct
##    <chr>      <dbl> <dbl>
##  1 accounting  0.45   0  
##  2 accounting  0.46   0.1
##  3 accounting  0.47   0.1
##  4 accounting  0.48   0.1
##  5 accounting  0.49   0.1
##  6 accounting  0.5    0.1
##  7 accounting  0.51   0  
##  8 accounting  0.52   0  
##  9 accounting  0.53   0.1
## 10 accounting  0.54   0  
## # ... with 373 more rows
…
left_NP <- HR %>% 
  group_by(sales, left, NP) %>% 
  summarise(n = n(), .groups='drop') %>% 
  mutate(tot_group = sum(n)) %>% 
  mutate(pct = round(n/tot_group*100,1))

left_NP

## # A tibble: 109 x 6
##    sales      left        NP     n tot_group   pct
##    <chr>      <chr>    <int> <int>     <int> <dbl>
##  1 accounting left         2    35     14999   0.2
##  2 accounting left         3   197     14999   1.3
##  3 accounting left         4   193     14999   1.3
##  4 accounting left         5   117     14999   0.8
##  5 accounting left         6    21     14999   0.1
##  6 accounting turnover     2    91     14999   0.6
##  7 accounting turnover     3     2     14999   0  
##  8 accounting turnover     4    28     14999   0.2
##  9 accounting turnover     5    23     14999   0.2
## 10 accounting turnover     6    45     14999   0.3
## # ... with 99 more rows
…
TS_SL <- HR %>%
  group_by(sales, TS) %>% 
  summarise(mean_SL = mean(SL), .groups = 'drop')

TS_SL

## # A tibble: 74 x 3
##    sales         TS mean_SL
##    <chr>      <int>   <dbl>
##  1 accounting     2   0.686
##  2 accounting     3   0.606
##  3 accounting     4   0.427
##  4 accounting     5   0.574
##  5 accounting     6   0.565
##  6 accounting     8   0.693
##  7 accounting    10   0.752
##  8 hr             2   0.718
##  9 hr             3   0.594
## 10 hr             4   0.493
## # ... with 64 more rows
…
